[0219/134150.355:ERROR:process_reader_win.cc(123)] NtOpenThread: {Access Denied} A process has requested access to an object, but has not been granted those access rights. (0xc0000022)
[0219/134150.355:ERROR:exception_snapshot_win.cc(88)] thread ID 12020 not found in process
[0226/132213.810:ERROR:process_reader_win.cc(123)] NtOpenThread: {Access Denied} A process has requested access to an object, but has not been granted those access rights. (0xc0000022)
[0226/132213.812:ERROR:exception_snapshot_win.cc(88)] thread ID 10868 not found in process
[0226/133028.354:ERROR:process_reader_win.cc(123)] NtOpenThread: {Access Denied} A process has requested access to an object, but has not been granted those access rights. (0xc0000022)
[0226/133028.354:ERROR:exception_snapshot_win.cc(88)] thread ID 8864 not found in process
[0226/155816.064:ERROR:process_reader_win.cc(151)] SuspendThread: Access is denied. (0x5)
[0226/155816.064:ERROR:process_reader_win.cc(151)] SuspendThread: Access is denied. (0x5)
[0226/155816.064:ERROR:process_reader_win.cc(151)] SuspendThread: Access is denied. (0x5)
[0226/155816.064:ERROR:process_reader_win.cc(151)] SuspendThread: Access is denied. (0x5)
[0226/155816.064:ERROR:process_reader_win.cc(151)] SuspendThread: Access is denied. (0x5)
[0226/155816.064:ERROR:process_reader_win.cc(151)] SuspendThread: Access is denied. (0x5)
[0226/155816.064:ERROR:process_reader_win.cc(123)] NtOpenThread: {Access Denied} A process has requested access to an object, but has not been granted those access rights. (0xc0000022)
[0226/155816.064:ERROR:exception_snapshot_win.cc(88)] thread ID 9608 not found in process
[0226/155957.265:ERROR:process_reader_win.cc(123)] NtOpenThread: {Access Denied} A process has requested access to an object, but has not been granted those access rights. (0xc0000022)
[0226/155957.265:ERROR:exception_snapshot_win.cc(88)] thread ID 21632 not found in process
[0226/160057.946:ERROR:process_reader_win.cc(123)] NtOpenThread: {Access Denied} A process has requested access to an object, but has not been granted those access rights. (0xc0000022)
[0226/160057.962:ERROR:exception_snapshot_win.cc(88)] thread ID 21688 not found in process
[0226/160202.031:ERROR:process_reader_win.cc(123)] NtOpenThread: {Access Denied} A process has requested access to an object, but has not been granted those access rights. (0xc0000022)
[0226/160202.031:ERROR:exception_snapshot_win.cc(88)] thread ID 7896 not found in process
[0226/161408.668:ERROR:process_reader_win.cc(123)] NtOpenThread: {Access Denied} A process has requested access to an object, but has not been granted those access rights. (0xc0000022)
[0226/161408.670:ERROR:exception_snapshot_win.cc(88)] thread ID 19544 not found in process
[0226/164300.007:ERROR:process_reader_win.cc(123)] NtOpenThread: {Access Denied} A process has requested access to an object, but has not been granted those access rights. (0xc0000022)
[0226/164300.008:ERROR:exception_snapshot_win.cc(88)] thread ID 12608 not found in process
[0305/105301.998:ERROR:process_reader_win.cc(151)] SuspendThread: Access is denied. (0x5)
[0305/105302.002:ERROR:process_reader_win.cc(151)] SuspendThread: Access is denied. (0x5)
[0305/105302.002:ERROR:process_reader_win.cc(151)] SuspendThread: Access is denied. (0x5)
[0305/105302.002:ERROR:process_reader_win.cc(151)] SuspendThread: Access is denied. (0x5)
[0305/105302.002:ERROR:process_reader_win.cc(151)] SuspendThread: Access is denied. (0x5)
[0305/105302.002:ERROR:process_reader_win.cc(151)] SuspendThread: Access is denied. (0x5)
[0305/105302.002:ERROR:process_reader_win.cc(123)] NtOpenThread: {Access Denied} A process has requested access to an object, but has not been granted those access rights. (0xc0000022)
[0305/105302.006:ERROR:exception_snapshot_win.cc(88)] thread ID 12380 not found in process
[0305/105302.010:ERROR:process_reader_win.cc(151)] SuspendThread: Access is denied. (0x5)
[0305/105302.014:ERROR:process_reader_win.cc(151)] SuspendThread: Access is denied. (0x5)
[0305/105302.014:ERROR:process_reader_win.cc(151)] SuspendThread: Access is denied. (0x5)
[0305/105302.014:ERROR:process_reader_win.cc(151)] SuspendThread: Access is denied. (0x5)
[0305/105302.014:ERROR:process_reader_win.cc(151)] SuspendThread: Access is denied. (0x5)
[0305/105302.014:ERROR:process_reader_win.cc(151)] SuspendThread: Access is denied. (0x5)
[0305/105302.014:ERROR:process_reader_win.cc(151)] SuspendThread: Access is denied. (0x5)
[0305/105302.014:ERROR:process_reader_win.cc(151)] SuspendThread: Access is denied. (0x5)
[0305/105302.014:ERROR:process_reader_win.cc(151)] SuspendThread: Access is denied. (0x5)
[0305/105302.014:ERROR:process_reader_win.cc(123)] NtOpenThread: {Access Denied} A process has requested access to an object, but has not been granted those access rights. (0xc0000022)
[0305/105302.014:ERROR:exception_snapshot_win.cc(88)] thread ID 10640 not found in process
[0305/124956.989:ERROR:process_reader_win.cc(123)] NtOpenThread: {Access Denied} A process has requested access to an object, but has not been granted those access rights. (0xc0000022)
[0305/124956.990:ERROR:exception_snapshot_win.cc(88)] thread ID 18264 not found in process
[0305/150833.074:ERROR:process_reader_win.cc(123)] NtOpenThread: {Access Denied} A process has requested access to an object, but has not been granted those access rights. (0xc0000022)
[0305/150833.090:ERROR:exception_snapshot_win.cc(88)] thread ID 16668 not found in process
